source/CRC/CRC.sim/sim_1/behav/xsim/test.vcd
$date
   Fri Jul 31 23:57:57 2020
$end
$version
  2018.3
$end
$timescale
  1ps
$end
$scope module test_tb $end
$var reg 1 ! clk $end
$var reg 8 " data [7:0] $end
$var reg 1 # rst_n $end
$var wire 16 $ crc [15:0] $end
$scope module test_ins0 $end
$var wire 1 % clk $end
$var wire 1 & rst_n $end
$var wire 8 ' data [7:0] $end
$var reg 16 ( crc [15:0] $end
$var wire 24 ) stemp [23:0] $end
$var reg 24 * temp [23:0] $end
$var parameter 17 + polynomial [16:0] $end
$upscope $end
$upscope $end
$enddefinitions $end
#0
$dumpvars
0!
b10110110 "
0#
b0 $
0%
0&
b10110110 '
b0 (
b101101100000000000000000 )
b101101100000000000000000 *
b10001000000100001 +
$end
#5000
1!
1%
b0 (
#10000
0!
1#
0%
1&
#15000
1!
1%
b1111100001000010000000 *
#20000
0!
0%
#25000
1!
1%
b111000001010010100000 *
#30000
0!
0%
#35000
1!
1%
b11010001011010110000 *
#40000
0!
0%
#45000
1!
1%
b1011001011110111000 *
#50000
0!
0%
#55000
1!
1%
b11101011100111100 *
#60000
0!
0%
#65000
1!
1%
b1100011100011101 *
#70000
0!
0%
#75000
1!
b1100011100011101 $
1%
b1100011100011101 (
#80000
0!
0%
#85000
1!
1%
b1100011100011101 (
#90000
0!
0%
#95000
1!
1%
b1100011100011101 (
#100000
0!
0%
#105000
1!
1%
b1100011100011101 (
#110000
0!
0%
#115000
1!
1%
b1100011100011101 (
#120000
0!
0%
#125000
1!
1%
b1100011100011101 (
#130000
0!
0%
#135000
1!
1%
b1100011100011101 (
#140000
0!
0%
#145000
1!
1%
b1100011100011101 (
#150000
0!
0%
#155000
1!
1%
b1100011100011101 (
#160000
0!
0%
#165000
1!
1%
b1100011100011101 (
#170000
0!
0%
#175000
1!
1%
b1100011100011101 (
#180000
0!
0%
#185000
1!
1%
b1100011100011101 (
#190000
0!
0%
#195000
1!
1%
b1100011100011101 (
#200000
0!
0%
#205000
1!
1%
b1100011100011101 (
#210000
0!
0%
#215000
1!
1%
b1100011100011101 (
#220000
0!
0%
#225000
1!
1%
b1100011100011101 (
#230000
0!
0%
#235000
1!
1%
b1100011100011101 (
#240000
0!
0%
#245000
1!
1%
b1100011100011101 (
#250000
0!
0%
#255000
1!
1%
b1100011100011101 (
#260000
0!
0%
#265000
1!
1%
b1100011100011101 (
#270000
0!
0%
#275000
1!
1%
b1100011100011101 (
#280000
0!
0%
#285000
1!
1%
b1100011100011101 (
#290000
0!
0%
#295000
1!
1%
b1100011100011101 (
#300000
0!
0%
#305000
1!
1%
b1100011100011101 (
#310000
0!
0%
#315000
1!
1%
b1100011100011101 (
#320000
0!
0%
#325000
1!
1%
b1100011100011101 (
#330000
0!
0%
#335000
1!
1%
b1100011100011101 (
#340000
0!
0%
#345000
1!
1%
b1100011100011101 (
#350000
0!
0%
#355000
1!
1%
b1100011100011101 (
#360000
0!
0%
#365000
1!
1%
b1100011100011101 (
#370000
0!
0%
#375000
1!
1%
b1100011100011101 (
#380000
0!
0%
#385000
1!
1%
b1100011100011101 (
#390000
0!
0%
#395000
1!
1%
b1100011100011101 (
#400000
0!
0%
#405000
1!
1%
b1100011100011101 (
#410000
0!
0%
#415000
1!
1%
b1100011100011101 (
#420000
0!
0%
#425000
1!
1%
b1100011100011101 (
#430000
0!
0%
#435000
1!
1%
b1100011100011101 (
#440000
0!
0%
#445000
1!
1%
b1100011100011101 (
#450000
0!
0%
#455000
1!
1%
b1100011100011101 (
#460000
0!
0%
#465000
1!
1%
b1100011100011101 (
#470000
0!
0%
#475000
1!
1%
b1100011100011101 (
#480000
0!
0%
#485000
1!
1%
b1100011100011101 (
#490000
0!
0%
#495000
1!
1%
b1100011100011101 (
#500000
0!
0%
#505000
1!
1%
b1100011100011101 (
#510000
0!
0%
#515000
1!
1%
b1100011100011101 (
#520000
0!
0%
#525000
1!
1%
b1100011100011101 (
#530000
0!
0%
#535000
1!
1%
b1100011100011101 (
#540000
0!
0%
#545000
1!
1%
b1100011100011101 (
#550000
0!
0%
#555000
1!
1%
b1100011100011101 (
#560000
0!
0%
#565000
1!
1%
b1100011100011101 (
#570000
0!
0%
#575000
1!
1%
b1100011100011101 (
#580000
0!
0%
#585000
1!
1%
b1100011100011101 (
#590000
0!
0%
#595000
1!
1%
b1100011100011101 (
#600000
0!
0%
#605000
1!
1%
b1100011100011101 (
#610000
0!
0%
#615000
1!
1%
b1100011100011101 (
#620000
0!
0%
#625000
1!
1%
b1100011100011101 (
#630000
0!
0%
#635000
1!
1%
b1100011100011101 (
#640000
0!
0%
#645000
1!
1%
b1100011100011101 (
#650000
0!
0%
#655000
1!
1%
b1100011100011101 (
#660000
0!
0%
#665000
1!
1%
b1100011100011101 (
#670000
0!
0%
#675000
1!
1%
b1100011100011101 (
#680000
0!
0%
#685000
1!
1%
b1100011100011101 (
#690000
0!
0%
#695000
1!
1%
b1100011100011101 (
#700000
0!
0%
#705000
1!
1%
b1100011100011101 (
#710000
0!
0%
#715000
1!
1%
b1100011100011101 (
#720000
0!
0%
#725000
1!
1%
b1100011100011101 (
#730000
0!
0%
#735000
1!
1%
b1100011100011101 (
#740000
0!
0%
#745000
1!
1%
b1100011100011101 (
#750000
0!
0%
#755000
1!
1%
b1100011100011101 (
#760000
0!
0%
#765000
1!
1%
b1100011100011101 (
#770000
0!
0%
#775000
1!
1%
b1100011100011101 (
#780000
0!
0%
#785000
1!
1%
b1100011100011101 (
#790000
0!
0%
#795000
1!
1%
b1100011100011101 (
#800000
0!
0%
#805000
1!
1%
b1100011100011101 (
#810000
0!
0%
#815000
1!
1%
b1100011100011101 (
#820000
0!
0%
#825000
1!
1%
b1100011100011101 (
#830000
0!
0%
#835000
1!
1%
b1100011100011101 (
#840000
0!
0%
#845000
1!
1%
b1100011100011101 (
#850000
0!
0%
#855000
1!
1%
b1100011100011101 (
#860000
0!
0%
#865000
1!
1%
b1100011100011101 (
#870000
0!
0%
#875000
1!
1%
b1100011100011101 (
#880000
0!
0%
#885000
1!
1%
b1100011100011101 (
#890000
0!
0%
#895000
1!
1%
b1100011100011101 (
#900000
0!
0%
#905000
1!
1%
b1100011100011101 (
#910000
0!
0%
#915000
1!
1%
b1100011100011101 (
#920000
0!
0%
#925000
1!
1%
b1100011100011101 (
#930000
0!
0%
#935000
1!
1%
b1100011100011101 (
#940000
0!
0%
#945000
1!
1%
b1100011100011101 (
#950000
0!
0%
#955000
1!
1%
b1100011100011101 (
#960000
0!
0%
#965000
1!
1%
b1100011100011101 (
#970000
0!
0%
#975000
1!
1%
b1100011100011101 (
#980000
0!
0%
#985000
1!
1%
b1100011100011101 (
#990000
0!
0%
#995000
1!
1%
b1100011100011101 (
